<?xml version="1.0" encoding="utf-8"?>
<!-- Generator: Adobe Illustrator 18.1.1, SVG Export Plug-In . SVG Version: 6.00 Build 0)  -->
<svg version="1.1" id="Layer_1" xmlns="http://www.w3.org/2000/svg" xmlns:xlink="http://www.w3.org/1999/xlink" x="0px" y="0px"
	 viewBox="0 0 80 80" enable-background="new 0 0 80 80" xml:space="preserve">
<path fill="#FFFFFF" d="M40,79.1069c21.611,0,39.131-17.5199,39.131-39.131c0-21.611-17.52-39.131-39.131-39.131
	S0.869,18.365,0.869,39.976C0.869,61.587,18.389,79.1069,40,79.1069"/>
<path fill="#2A307D" d="M45.6329,48.6265c-0.447,0-0.861-0.287-1.002-0.7369c-0.172-0.553,0.136-1.142,0.689-1.314l9.534-2.978
	c0.553-0.173,1.142,0.136,1.315,0.688c0.172,0.554-0.136,1.142-0.689,1.3151l-9.534,2.9779
	C45.8419,48.6116,45.7369,48.6265,45.6329,48.6265"/>
<path fill="#2A307D" d="M33.9846,48.6265c-0.104,0-0.209-0.0149-0.313-0.048l-9.533-2.9779c-0.553-0.1721-0.862-0.7611-0.689-1.3151
	c0.172-0.552,0.761-0.863,1.315-0.688l9.533,2.978c0.553,0.172,0.861,0.761,0.689,1.314
	C34.8456,48.3395,34.4316,48.6265,33.9846,48.6265"/>
<path fill="#2A307D" d="M45.6329,42.6041c-0.447,0-0.861-0.287-1.002-0.7369c-0.172-0.553,0.136-1.142,0.689-1.314l9.534-2.978
	c0.553-0.174,1.142,0.136,1.315,0.688c0.172,0.554-0.136,1.142-0.689,1.3151l-9.534,2.9779
	C45.8419,42.5892,45.7369,42.6041,45.6329,42.6041"/>
<path fill="#2A307D" d="M33.9846,42.6041c-0.104,0-0.209-0.0149-0.313-0.048l-9.533-2.9779c-0.553-0.1721-0.862-0.7611-0.689-1.3151
	c0.172-0.552,0.761-0.8619,1.315-0.688l9.533,2.978c0.553,0.172,0.861,0.761,0.689,1.314
	C34.8456,42.3162,34.4316,42.6041,33.9846,42.6041"/>
<path fill="#2A307D" d="M45.6329,36.5812c-0.447,0-0.861-0.287-1.002-0.7369c-0.172-0.553,0.136-1.142,0.689-1.314l9.534-2.978
	c0.553-0.173,1.142,0.136,1.315,0.688c0.172,0.554-0.136,1.142-0.689,1.3151l-9.534,2.9779
	C45.8419,36.5663,45.7369,36.5812,45.6329,36.5812"/>
<path fill="#2A307D" d="M33.9846,36.5812c-0.104,0-0.209-0.0149-0.313-0.048l-9.533-2.9779c-0.553-0.1721-0.862-0.7611-0.689-1.3151
	c0.172-0.552,0.761-0.8619,1.315-0.688l9.533,2.978c0.553,0.172,0.861,0.761,0.689,1.314
	C34.8456,36.2942,34.4316,36.5812,33.9846,36.5812"/>
<path fill="#2A307D" d="M62.1646,17.1184c-0.404-0.299-0.924-0.3831-1.401-0.236l-20.764,6.485l-20.764-6.485
	c-0.478-0.1471-0.996-0.063-1.401,0.236c-0.404,0.2939-0.64,0.766-0.64,1.265v36.627c0,0.692,0.446,1.302,1.102,1.506l21.236,6.6331
	c0.032,0.011,0.058,0.016,0.089,0.021c0.032,0.01,0.063,0.016,0.094,0.022c0.042,0.004,0.08,0.016,0.116,0.016
	c0.058,0.0031,0.111,0.009,0.168,0.009c0.058,0,0.11-0.006,0.167-0.011c0.037,0,0.08-0.01,0.122-0.016
	c0.026-0.005,0.052-0.01,0.078-0.016c0.037-0.005,0.068-0.016,0.105-0.026l21.231-6.6331c0.655-0.205,1.102-0.813,1.102-1.506
	v-36.626C62.8046,17.8844,62.5686,17.4124,62.1646,17.1184 M20.3426,20.5244l18.083,5.651v33.327l-18.083-5.646V20.5244
	 M59.6566,53.8553l-18.083,5.6461v-33.326l18.083-5.651V53.8553z"/>
</svg>
